"Malkin, Evgeni",0.463620805816832,-1,0,0,0.638779606313403,-1
"Stamkos, Steven",0.542172165264974,-1,0,0,0.483055797462091,-1
"Giroux, Claude",0.25733688106827,-1,0,0,0.601004288121342,-1
"Spezza, Jason",0.296731202721714,-1,0,0,0.501420728913838,-1
"Kovalchuk, Ilya",0.360276082610087,-1,0,0,0.560085680810027,-1
"Kessel, Phil",0.329507551402403,-1,0,0,0.505653335619472,-1
"Tavares, John",0.4172029352853,-1,0,0,0.527830469020558,-1
"Sedin, Henrik",0.180457374861068,-1,0,0,0.561594195540893,-1
"Neal, James",0.378479733876007,-1,0,0,0.321314414174592,-1
"Elias, Patrik",0.243929532148969,-1,0,0,0.429494323682769,-1
"Thornton, Joe",0.159772670554661,-1,0,0,0.661340981112656,-1
"Whitney, Ray",0.223287053685659,-1,0,0,0.455698929006945,-1
"Hossa, Marian",0.312548246323226,-1,0,0,0.347035690444105,-1
"Kopitar, Anze",0.236069480377972,-1,0,0,0.571848883807548,-1
"Gaborik, Marian",0.254879199783701,-1,0,0,0.257967728976425,-1
"Eberle, Jordan",0.308803969019739,-1,0,0,0.401070942452513,-1
"St. Louis, Martin",0.324803667535483,-1,0,0,0.538941075810352,-1
"Pominville, Jason",0.210327234753931,-1,0,0,0.40465977233041,-1
"Eriksson, Loui",0.247837216330261,-1,0,0,0.32229383760176,-1
"Staal, Eric",0.279046693308346,-1,0,0,0.45008363926092,-1
"Zetterberg, Henrik",0.218892356231757,-1,0,0,0.602163732534329,-1
"Parise, Zach",0.355439999594861,-1,0,0,0.379263585412131,-1
"Moulson, Matt",0.188452321679409,-1,0,0,0.282894466189858,-1
"Sharp, Patrick",0.245623493347765,-1,0,0,0.374434143729003,-1
"Iginla, Jarome",0.257382495107454,-1,0,0,0.290847150081021,-1
"Datsyuk, Pavel",0.322528669532735,-1,0,0,0.556296723480676,-1
"Hartnell, Scott",0.259886126976181,-1,0,0,0.331667528758125,-1
"Seguin, Tyler",0.408910593689212,-1,0,0,0.544136617891829,-1
"Lupul, Joffrey",0.292531904169583,-1,0,0,0.217618339843051,-1
"Sedin, Daniel",0.251797921254452,-1,0,0,0.455427292803879,-1
"Parenteau, P.A.",0.231353603353544,-1,0,0,0.294170906888431,-1
"Richards, Brad",0.185593854053347,-1,0,0,0.340055811406341,-1
"Selanne, Teemu",0.206821594421892,-1,0,0,0.308581674746371,-1
"Kane, Patrick",0.457872756612896,-1,0,0,0.659683898248249,-1
"Filppula, Valtteri",0.158003858429586,-1,0,0,0.397353933005005,-1
"Purcell, Teddy",0.174675711346317,-1,0,0,0.362992926880709,-1
"Pacioretty, Max",0.425712006881852,-1,0,0,0.394704340471299,-1
"Couture, Logan",0.335835871664138,-1,0,0,0.411446543707809,-1
"Ovechkin, Alex",0.556475470811008,-1,0,0,0.369810522015396,-1
"Wheeler, Blake",0.323702009848845,-1,0,0,0.553857960827445,-1
"Bergeron, Patrice",0.314224725418236,-1,0,0,0.426398689703941,-1
"Marleau, Patrick",0.317201998228242,-1,0,0,0.321635696629374,-1
"Ribeiro, Mike",0.135330228536514,-1,0,0,0.51387844778473,-1
"Benn, Jamie",0.4023831221919,-1,0,0,0.573929487355116,-1
"Krejci, David",0.236473375413699,-1,0,0,0.508644634118262,-1
"Vrbata, Radim",0.277632893969809,-1,0,0,0.368337831924038,-1
"Ryder, Michael",0.219336900319715,-1,0,0,0.28115251545652,-1
"Jokinen, Olli",0.209545097359674,-1,0,0,0.284244341250475,-1
"Kunitz, Chris",0.233350578631052,-1,0,0,0.33272378531038,-1
"Cole, Erik",0.271463351365443,-1,0,0,0.211889219426126,-1
"Fleischmann, Tomas",0.163581221628012,-1,0,0,0.264444564815327,-1
"Vanek, Thomas",0.305312843531648,-1,0,0,0.429292808016885,-1
"Pavelski, Joe",0.416998622495501,-1,0,0,0.451121055418229,-1
"Lucic, Milan",0.25645132232632,-1,0,0,0.377529877385556,-1
"Desharnais, David",0.181227488755038,-1,0,0,0.37118715104779,-1
"Michalek, Milan",0.219256713434723,-1,0,0,0.32434243804565,-1
"Perry, Corey",0.37536874759066,-1,0,0,0.388112328582696,-1
"Dupuis, Pascal",0.273758834877015,-1,0,0,0.359558082816394,-1
"Nash, Rick",0.369694586479769,-1,0,0,0.296352205372912,-1
"Williams, Justin",0.2641149368216,-1,0,0,0.329409288444574,-1
"Alfredsson, Daniel",0.264074426578634,-1,0,0,0.415180097942002,-1
"Erat, Martin",0.106627693632742,-1,0,0,0.360397437178671,-1
"Weiss, Stephen",0.186015248289616,-1,0,0,0.333730687182853,-1
"Getzlaf, Ryan",0.246062846335254,-1,0,0,0.698655903067151,-1
"Toews, Jonathan",0.34586928774154,-1,0,0,0.471793754053156,-1
"Kane, Evander",0.338975475480309,-1,0,0,0.267379114760486,-1
"Ryan, Bobby",0.25111825849373,-1,0,0,0.337486667338371,-1
"Franzen, Johan",0.273757004841464,-1,0,0,0.440739530687683,-1
"Prospal, Vinny",0.231136820925553,-1,0,0,0.409582494969819,-1
"O'Reilly, Ryan",0.271321870585652,-1,0,0,0.492684577751568,-1
"Marchand, Brad",0.422872576323397,-1,0,0,0.400026219071971,-1
"Oshie, T.J.",0.353248277790646,-1,0,0,0.388674589891128,-1
"Versteeg, Kris",0.203486382679721,-1,0,0,0.330621070331213,-1
"Semin, Alexander",0.221023629093326,-1,0,0,0.351452268849286,-1
"Callahan, Ryan",0.243175867199014,-1,0,0,0.307333567939325,-1
"Brown, Dustin",0.177279574285118,-1,0,0,0.230906615517455,-1
"Backes, David",0.266663161147844,-1,0,0,0.338681982342735,-1
"Jagr, Jaromir",0.261776166126912,-1,0,0,0.429041180581481,-1
"Stastny, Paul",0.238670720520091,-1,0,0,0.440503207985837,-1
"Heatley, Dany",0.225833358912896,-1,0,0,0.254795703005459,-1
"Hall, Taylor",0.306203076124577,-1,0,0,0.509891874041834,-1
"Legwand, David",0.124991095676001,-1,0,0,0.23738185440356,-1
"Plekanec, Tomas",0.201095484909628,-1,0,0,0.354386179612281,-1
"Nugent-Hopkins, Ryan",0.232747013997967,-1,0,0,0.390319840207773,-1
"Burrows, Alexandre",0.197996108381408,-1,0,0,0.198994050982454,-1
"Landeskog, Gabriel",0.268584307456041,-1,0,0,0.346826062776738,-1
"Grabovski, Mikhail",0.185201219161567,-1,0,0,0.264471919773439,-1
"Fisher, Mike",0.252298161253122,-1,0,0,0.290486872172836,-1
"Henrique, Adam",0.281483387261265,-1,0,0,0.264628485151705,-1
"Stepan, Derek",0.249752920889479,-1,0,0,0.483100055338631,-1
"Hudler, Jiri",0.264110838599099,-1,0,0,0.48818631757816,-1
"Stafford, Drew",0.237524639544562,-1,0,0,0.268320255249887,-1
"Staal, Jordan",0.209317304600207,-1,0,0,0.370567285341972,-1
"Doan, Shane",0.226106612802877,-1,0,0,0.288297018747625,-1
"Ladd, Andrew",0.304861328639688,-1,0,0,0.288566668874988,-1
"Simmonds, Wayne",0.374316139769873,-1,0,0,0.316534221328935,-1
"Voracek, Jakub",0.242504680702953,-1,0,0,0.556684905872184,-1
"Tanguay, Alex",0.176337811085973,-1,0,0,0.389515962795374,-1
"Lecavalier, Vincent",0.222221577384541,-1,0,0,0.300968989961641,-1
"Kesler, Ryan",0.268761878661484,-1,0,0,0.390728906735629,-1
"Briere, Daniel",0.191239035292266,-1,0,0,0.259835395212988,-1
"Malone, Ryan",0.294117647058824,-1,0,0,0.411764705882353,-1
"Sullivan, Steve",0.183345501985188,-1,0,0,0.291136006313145,-1
"Glencross, Curtis",0.273286999394113,-1,0,0,0.307247484241234,-1
"Nielsen, Frans",0.221728606672332,-1,0,0,0.366093441718103,-1
"Foligno, Nick",0.271904569102229,-1,0,0,0.361486367872177,-1
"Wellwood, Kyle",0.181317006266704,-1,0,0,0.280903536436736,-1
"Gagner, Sam",0.194402299103093,-1,0,0,0.327499360984987,-1
"Bozak, Tyler",0.248356938557425,-1,0,0,0.421782540750051,-1
"Read, Matt",0.170816963215325,-1,0,0,0.205868080428318,-1
"Clarkson, David",0.333983065057009,-1,0,0,0.191796613011402,-1
"Smyth, Ryan",0.124034416020751,-1,0,0,0.22145019686764,-1
"Jokinen, Jussi",0.185772331634268,-1,0,0,0.378096383842972,-1
"Little, Bryan",0.314548974219466,-1,0,0,0.440139230377734,-1
"Johansson, Marcus",0.233333695256101,-1,0,0,0.401059741551366,-1
"Okposo, Kyle",0.286414229027798,-1,0,0,0.478833187269226,-1
"Clowe, Ryane",0.145391215461019,-1,0,0,0.416857072714597,-1
"Sykora, Petr",0.25609756097561,-1,0,0,0.280487804878049,-1
"Richards, Mike",0.1879955436394,-1,0,0,0.379306210158298,-1
"Skinner, Jeff",0.377270863076768,-1,0,0,0.281323223372931,-1
"Backstrom, Nicklas",0.25309306013974,-1,0,0,0.735574912891986,-1
"Roy, Derek",0.157221953152518,-1,0,0,0.349274367930805,-1
"Brodziak, Kyle",0.127068576981975,-1,0,0,0.134593315091572,-1
"Zubrus, Dainius",0.170083929476708,-1,0,0,0.198952289753844,-1
"Koivu, Mikko",0.205148143621278,-1,0,0,0.505002110381938,-1
"Higgins, Chris",0.197910423291198,-1,0,0,0.274013875367264,-1
"Stalberg, Viktor",0.140095760569322,-1,0,0,0.175586934855722,-1
"MacArthur, Clarke",0.262803943552103,-1,0,0,0.338332619758652,-1
"Kostitsyn, Sergei",0.120712195880597,-1,0,0,0.290360520611592,-1
"Hornqvist, Patric",0.299664453896701,-1,0,0,0.359825516400951,-1
"Peverley, Rich",0.130552245278865,-1,0,0,0.36315637059261,-1
"Perron, David",0.255460625108622,-1,0,0,0.358113309628921,-1
"Hodgson, Cody",0.280619788416164,-1,0,0,0.34165726848862,-1
"Downie, Steve",0.147909142320868,-1,0,0,0.257555901813699,-1
"Brassard, Derick",0.238314688087981,-1,0,0,0.373600508397066,-1
"Cammalleri, Michael",0.291590080705177,-1,0,0,0.380234107250409,-1
"Laich, Brooks",0.121040566478702,-1,0,0,0.215119690505316,-1
"Umberger, R.J.",0.22209628627634,-1,0,0,0.220858389400619,-1
"Ott, Steve",0.140296845443596,-1,0,0,0.248714590507518,-1
"Kelly, Chris",0.122231073956621,-1,0,0,0.214451175276473,-1
"Hansen, Jannik",0.24240676375051,-1,0,0,0.22624366573203,-1
"Chimera, Jason",0.197173094511418,-1,0,0,0.207471651082653,-1
"Koivu, Saku",0.166180839852279,-1,0,0,0.330896280466315,-1
"Hagelin, Carl",0.161856761718584,-1,0,0,0.253979223156997,-1
"Berglund, Patrik",0.239055822173026,-1,0,0,0.158083424569772,-1
"Bertuzzi, Todd",0.1631097502146,-1,0,0,0.170576793835389,-1
"Cooke, Matt",0.153764187554393,-1,0,0,0.237475526994017,-1
"Hejduk, Milan",0.149930089976499,-1,0,0,0.256012304849389,-1
"Greening, Colin",0.128284942836059,-1,0,0,0.188703123867288,-1
"Vermette, Antoine",0.185960340943017,-1,0,0,0.268681729489111,-1
"Jones, David",0.174538699489331,-1,0,0,0.16642619228191,-1
"McGinn, Jamie",0.170241768357164,-1,0,0,0.159321907953359,-1
"Bolland, Dave",0.151720166017113,-1,0,0,0.280719018540814,-1
"Korpikoski, Lauri",0.132789718190578,-1,0,0,0.198389988607601,-1
"Crosby, Sidney",0.476500878734622,-1,0,0,0.717847095737693,-1
"Anisimov, Artem",0.269586913111641,-1,0,0,0.31294695124615,-1
"Setoguchi, Devin",0.206298798071936,-1,0,0,0.243103955021058,-1
"Tlusty, Jiri",0.257272343662579,-1,0,0,0.240874417579657,-1
"Connolly, Tim",0.185714285714286,-1,0,0,0.328571428571429,-1
"Kostitsyn, Andrei",0.222222222222222,-1,0,0,0.277777777777778,-1
"Hemsky, Ales",0.170657445701116,-1,0,0,0.332618290113773,-1
"Smith, Craig",0.217016680718118,-1,0,0,0.235455455905331,-1
"Antropov, Nik",0.173164348409296,-1,0,0,0.296512893787848,-1
"Cullen, Matt",0.165774260414791,-1,0,0,0.274827494587846,-1
"Wilson, Colin",0.172104261003389,-1,0,0,0.310332925216512,-1
"Arnott, Jason",0.236111111111111,-1,0,0,0.236111111111111,-1
"Dubinsky, Brandon",0.192822227433967,-1,0,0,0.423844045963104,-1
"Ennis, Tyler",0.255723984542708,-1,0,0,0.3415529313713,-1
"Ruutu, Tuomo",0.169335982993065,-1,0,0,0.238453234731367,-1
"Horcoff, Shawn",0.127800131008334,-1,0,0,0.185203182349582,-1
"Hanzal, Martin",0.214382782406163,-1,0,0,0.408726691542803,-1
"Talbot, Max",0.102089161235574,-1,0,0,0.181241314445494,-1
"Carter, Jeff",0.369878317847155,-1,0,0,0.398759742687526,-1
"Jones, Ryan",0.215189873417722,-1,0,0,0.20253164556962,-1
"Cleary, Daniel",0.178047451374916,-1,0,0,0.178278001341382,-1
"Kennedy, Tyler",0.0794496874311248,-1,0,0,0.230094516944008,-1
"Ponikarovsky, Alexei",0.121187442112995,-1,0,0,0.157772028999393,-1
"Brouwer, Troy",0.233486083544654,-1,0,0,0.221751750117596,-1
"Sutter, Brandon",0.216417071521784,-1,0,0,0.182570790685974,-1
"LaRose, Chad",0.283582089552239,-1,0,0,0.194029850746269,-1
"Horton, Nathan",0.227371288117475,-1,0,0,0.322748776741745,-1
"Pouliot, Benoit",0.210300055559762,-1,0,0,0.241549387377202,-1
"Grabner, Michael",0.25197418949217,-1,0,0,0.153869858433407,-1
"Bailey, Josh",0.168624675498899,-1,0,0,0.378853067158635,-1
"Kopecky, Tomas",0.252414308546313,-1,0,0,0.262084028996675,-1
"Samuelsson, Mikael",0.259259259259259,-1,0,0,0.314814814814815,-1
"Perreault, Mathieu",0.203129466479943,-1,0,0,0.420668419026642,-1
"Booth, David",0.165172736077154,-1,0,0,0.169101429251917,-1
"Langkow, Daymond",0.150684931506849,-1,0,0,0.26027397260274,-1
"Stewart, Chris",0.18443438283199,-1,0,0,0.190954071898081,-1
"Tootoo, Jordin",0.0779220779220779,-1,0,0,0.311688311688312,-1
"Turris, Kyle",0.291936318669287,-1,0,0,0.367959451427698,-1
"Kulemin, Nikolay",0.147147918456965,-1,0,0,0.180519529779642,-1
"Neil, Chris",0.0783125088239446,-1,0,0,0.123605545238328,-1
"Halischuk, Matt",0.161777999299705,-1,0,0,0.170590514165664,-1
"Steen, Alexander",0.277988937953197,-1,0,0,0.481884591872456,-1
"Stempniak, Lee",0.210410728627522,-1,0,0,0.311955417460396,-1
"Eller, Lars",0.165267738719449,-1,0,0,0.184726572487539,-1
"Duchene, Matt",0.298310479303519,-1,0,0,0.398115536104942,-1
"Burmistrov, Alex",0.0957574849380284,-1,0,0,0.168319797496774,-1
"Brunette, Andrew",0.153846153846154,-1,0,0,0.192307692307692,-1
"Stapleton, Tim",0.174603174603175,-1,0,0,0.253968253968254,-1
"Couturier, Sean",0.180965803842611,-1,0,0,0.325741843492749,-1
"Goc, Marcel",0.176307928135007,-1,0,0,0.219332264906675,-1
"Havlat, Martin",0.22294009209072,-1,0,0,0.27094523497816,-1
"Clutterbuck, Cal",0.132390192222757,-1,0,0,0.160529845179833,-1
"Kruger, Marcus",0.0832120435899211,-1,0,0,0.176865872063981,-1
"Johnson, Nick",0.103896103896104,-1,0,0,0.233766233766234,-1
"Boyle, Brian",0.185582549532406,-1,0,0,0.133469844150789,-1
"Crabb, Joey",0.164179104477612,-1,0,0,0.223880597014925,-1
"Cogliano, Andrew",0.182171421121065,-1,0,0,0.23186166716676,-1
"Morrow, Brenden",0.212609374159624,-1,0,0,0.223720842509239,-1
"Torres, Raffi",0.183057231194154,-1,0,0,0.232963071080383,-1
"Smith, Zack",0.223694519886046,-1,0,0,0.174336241750636,-1
"Helm, Darren",0.184682920841307,-1,0,0,0.192439170814213,-1
"Moore, Dominic",0.105916998196063,-1,0,0,0.164685480243924,-1
"Letestu, Mark",0.176300849511032,-1,0,0,0.232579668818077,-1
"Gerbe, Nathan",0.14396627684994,-1,0,0,0.205080605979946,-1
"Leino, Ville",0.112676056338028,-1,0,0,0.23943661971831,-1
"Miller, Drew",0.175,-1,0,0,0.1375,-1
"Condra, Erik",0.10533075138162,-1,0,0,0.177859826661522,-1
"Langenbrunner, Jamie",0.0857142857142857,-1,0,0,0.257142857142857,-1
"Matthias, Shawn",0.17404978217445,-1,0,0,0.165954242375847,-1
"Brent, Tim",0.151898734177215,-1,0,0,0.151898734177215,-1
"Handzus, Michal",0.0764797572399481,-1,0,0,0.215306701315515,-1
"Rolston, Brian",0.1,-1,0,0,0.242857142857143,-1
"Bickell, Bryan",0.171896916838255,-1,0,0,0.207976147365708,-1
"Boedker, Mikkel",0.187780898884384,-1,0,0,0.271148319001048,-1
"Van Riemsdyk, James",0.348802761708902,-1,0,0,0.373794207545521,-1
"Holmstrom, Tomas",0.148648648648649,-1,0,0,0.175675675675676,-1
"Bourque, Rene",0.188433848682521,-1,0,0,0.111071249349859,-1
"Hagman, Niklas",0.126760563380282,-1,0,0,0.197183098591549,-1
"Bergenheim, Sean",0.207321239194482,-1,0,0,0.18058899784907,-1
"Shaw, Andrew",0.194254614838026,-1,0,0,0.22355255905202,-1
"Winnik, Daniel",0.133082375654082,-1,0,0,0.242367064130958,-1
"Gordon, Boyd",0.100161279459832,-1,0,0,0.189806973348408,-1
"Boyes, Brad",0.177372949096948,-1,0,0,0.289392377979451,-1
"Spaling, Nick",0.147002119370813,-1,0,0,0.204599981333313,-1
"Bouchard, Pierre-Marc",0.205706689329355,-1,0,0,0.30391504695468,-1
"McDonald, Andy",0.2616509870031,-1,0,0,0.413308680914315,-1
"Abdelkader, Justin",0.189089609749598,-1,0,0,0.24026227326489,-1
"Fiddler, Vernon",0.129838039987516,-1,0,0,0.180202414588803,-1
"Nystrom, Eric",0.180459535632985,-1,0,0,0.0768813024205405,-1
"Johansen, Ryan",0.215994694239647,-1,0,0,0.491216194560698,-1
"Gaustad, Paul",0.125442648190916,-1,0,0,0.159291762894534,-1
"Dvorak, Radek",0.0547945205479452,-1,0,0,0.232876712328767,-1
"Slater, Jim",0.166666666666667,-1,0,0,0.102564102564103,-1
"Stoll, Jarret",0.0986127582899038,-1,0,0,0.195005333889959,-1
"Adam, Luke",0.192307692307692,-1,0,0,0.192307692307692,-1
"Fedotenko, Ruslan",0.0982304005711134,-1,0,0,0.177463694046138,-1
"Sobotka, Vladimir",0.140606823117289,-1,0,0,0.311662712561681,-1
"Dorsett, Derek",0.0838930612471645,-1,0,0,0.17871093748424,-1
"Stewart, Anthony",0.116883116883117,-1,0,0,0.142857142857143,-1
"Raymond, Mason",0.215282581598803,-1,0,0,0.239788682188958,-1
"Pyatt, Taylor",0.12441142287515,-1,0,0,0.115447728226283,-1
"Burish, Adam",0.0923076923076923,-1,0,0,0.2,-1
"Pyatt, Tom",0.125583380366402,-1,0,0,0.166984185020025,-1
"Lapierre, Maxim",0.0924156047395484,-1,0,0,0.123952045606975,-1
"Mitchell, Torrey",0.124411373460633,-1,0,0,0.11521710314634,-1
"Knuble, Mike",0.0833333333333333,-1,0,0,0.166666666666667,-1
"Ward, Joel",0.204451767678773,-1,0,0,0.250347097786284,-1
"Malhotra, Manny",0.0897435897435897,-1,0,0,0.141025641025641,-1
"Schenn, Brayden",0.279476990085034,-1,0,0,0.359623757697833,-1
"Stajan, Matt",0.104420732949308,-1,0,0,0.207596229568751,-1
"Bonino, Nick",0.199426697724589,-1,0,0,0.290572418172858,-1
"Lombardi, Matthew",0.129032258064516,-1,0,0,0.161290322580645,-1
"Adams, Craig",0.0619760228034876,-1,0,0,0.136527498323273,-1
"Prust, Brandon",0.0704593581769875,-1,0,0,0.183696314046733,-1
"Desjardins, Andrew",0.0802744306910197,-1,0,0,0.105128059502888,-1
"Penner, Dustin",0.146268123256887,-1,0,0,0.303041863164742,-1
"McClement, Jay",0.110174037866326,-1,0,0,0.164211156923394,-1
"Pahlsson, Samuel",0.05,-1,0,0,0.1625,-1
"Gagne, Simon",0.15711918570245,-1,0,0,0.291069949106403,-1
"Moen, Travis",0.1875,-1,0,0,0.145833333333333,-1
"Halpern, Jeff",0.0579710144927536,-1,0,0,0.173913043478261,-1
"Mueller, Peter",0.197287650320528,-1,0,0,0.234032830705161,-1
"Glass, Tanner",0.0641025641025641,-1,0,0,0.141025641025641,-1
"Campbell, Gregory",0.0939479183794787,-1,0,0,0.158426772667783,-1
"Belanger, Eric",0.0512820512820513,-1,0,0,0.153846153846154,-1
"Butler, Bobby",0.114036459654284,-1,0,0,0.196494795101139,-1
"Mitchell, John",0.151756878689414,-1,0,0,0.202203574546616,-1
"Asham, Arron",0.078125,-1,0,0,0.171875,-1
"Chipchura, Kyle",0.0759183647572572,-1,0,0,0.199458231062104,-1
"Wandell, Tom",0.0833333333333333,-1,0,0,0.125,-1
"Paille, Dan",0.154645368980851,-1,0,0,0.127256208463289,-1
"Comeau, Blake",0.142217457432243,-1,0,0,0.208881600162248,-1
"Beleskey, Matt",0.217522201215429,-1,0,0,0.218690266555088,-1
"Thompson, Nate",0.0989889669910467,-1,0,0,0.136287607567129,-1
"Connolly, Brett",0.186417331290079,-1,0,0,0.148936424162052,-1
"Galiardi, T.J.",0.0984137130874951,-1,0,0,0.202221139772602,-1
"Mayers, Jamal",0.0740740740740741,-1,0,0,0.111111111111111,-1
"Caron, Jordan",0.145833333333333,-1,0,0,0.166666666666667,-1
"Gionta, Brian",0.190265232330297,-1,0,0,0.264978588563681,-1
"Frolik, Michael",0.201701169091834,-1,0,0,0.286739611633657,-1
"Frattin, Matt",0.232860017246335,-1,0,0,0.200471160295104,-1
"Park, Richard",0.12962962962963,-1,0,0,0.12962962962963,-1
"Vitale, Joe",0.0588235294117647,-1,0,0,0.147058823529412,-1
"Atkinson, Cam",0.340797857446732,-1,0,0,0.291813631223069,-1
"Brule, Gilbert",0.151515151515152,-1,0,0,0.272727272727273,-1
"Kobasew, Chuck",0.130169804162033,-1,0,0,0.112432751213713,-1
"Karlsson, Erik",0.232808595136767,-1,0,0,0.680654640139007,-1
"Byfuglien, Dustin",0.211614608055947,-1,0,0,0.453360596146004,-1
"Campbell, Brian",0.0699289689513767,-1,0,0,0.272995181247946,-1
"Chara, Zdeno",0.138580986533902,-1,0,0,0.280920408090349,-1
"Pietrangelo, Alex",0.124517026774556,-1,0,0,0.444391848029966,-1
"Edler, Alexander",0.109164600381183,-1,0,0,0.266066580983256,-1
"Weber, Shea",0.230511878603996,-1,0,0,0.370317158027915,-1
"Boyle, Dan",0.140927136241393,-1,0,0,0.232918405674444,-1
"Streit, Mark",0.105606466378804,-1,0,0,0.373280382451725,-1
"Suter, Ryan",0.0877249832294892,-1,0,0,0.455233178317814,-1
"Wideman, Dennis",0.097661183653604,-1,0,0,0.337404407950035,-1
"Bieksa, Kevin",0.0603233592047828,-1,0,0,0.174828596867009,-1
"Phaneuf, Dion",0.0886122757831897,-1,0,0,0.31975965445737,-1
"Timonen, Kimmo",0.084129836233174,-1,0,0,0.447663501698562,-1
"Shattenkirk, Kevin",0.136933362787624,-1,0,0,0.530374783619858,-1
"Yandle, Keith",0.0798606628986199,-1,0,0,0.486471518179907,-1
"Letang, Kris",0.179451952845607,-1,0,0,0.660821899276148,-1
"Del Zotto, Michael",0.102517199341279,-1,0,0,0.250730669831083,-1
"Keith, Duncan",0.0976126265696658,-1,0,0,0.544082220724035,-1
"Johnson, Jack",0.0847955039587082,-1,0,0,0.255083132535727,-1
"Carle, Matthew",0.0486243584903725,-1,0,0,0.230186431841082,-1
"Leddy, Nick",0.105398080339462,-1,0,0,0.387434700021823,-1
"Burns, Brent",0.305785238560637,-1,0,0,0.521485356919402,-1
"Hamhuis, Dan",0.0355435567642583,-1,0,0,0.244841316906431,-1
"Gonchar, Sergei",0.0345457268669088,-1,0,0,0.328422647529809,-1
"Subban, P.K.",0.142802005544305,-1,0,0,0.541724328257823,-1
"Kronwall, Niklas",0.069649760367722,-1,0,0,0.340209571889586,-1
"Doughty, Drew",0.137523557036502,-1,0,0,0.410059156697675,-1
"Seabrook, Brent",0.100345191043791,-1,0,0,0.395042418861878,-1
"Lidstrom, Nicklas",0.157142857142857,-1,0,0,0.328571428571429,-1
"Enstrom, Toby",0.0548835953768317,-1,0,0,0.259358979724499,-1
"Garrison, Jason",0.0620531971069993,-1,0,0,0.18391096312323,-1
"White, Ian",0.0837497713554052,-1,0,0,0.164102014685516,-1
"Nikitin, Nikita",0.0752937980568063,-1,0,0,0.185294969429449,-1
"Ehrhoff, Christian",0.0746039627964579,-1,0,0,0.29893140042123,-1
"McDonagh, Ryan",0.108505180945023,-1,0,0,0.388473296034708,-1
"Ekman-Larsson, Oliver",0.205675069275976,-1,0,0,0.357787403591951,-1
"Carlson, John",0.132449036453709,-1,0,0,0.440339176935581,-1
"Kuba, Filip",0.0431669510629572,-1,0,0,0.256661283600315,-1
"Kaberle, Tomas",0.0416666666666667,-1,0,0,0.388888888888889,-1
"Gardiner, Jake",0.0874627462460027,-1,0,0,0.33046823637048,-1
"Goligoski, Alex",0.0672182187111224,-1,0,0,0.393836635157023,-1
"Bogosian, Zach",0.0683787256252922,-1,0,0,0.221663275195664,-1
"Fowler, Cam",0.0956482411687195,-1,0,0,0.345104334751523,-1
"Bouwmeester, Jay",0.0379465036696053,-1,0,0,0.222901927114619,-1
"Girardi, Dan",0.0499074122629864,-1,0,0,0.202573004193411,-1
"Kulikov, Dmitry",0.0470873639774082,-1,0,0,0.223733242392305,-1
"Martin, Paul",0.0561738641125458,-1,0,0,0.2729283426319,-1
"Visnovsky, Lubomir",0.101225482633256,-1,0,0,0.305379585125071,-1
"Wisniewski, James",0.118921141093772,-1,0,0,0.430127580516716,-1
"Giordano, Mark",0.185230339364847,-1,0,0,0.41880535306755,-1
"Liles, John-Michael",0.0439260995616889,-1,0,0,0.196507164521201,-1
"McBain, Jamie",0.0730231473568689,-1,0,0,0.185360295014257,-1
"Tyutin, Fedor",0.0378274779518617,-1,0,0,0.223283523873251,-1
"Johnson, Erik",0.113973574561445,-1,0,0,0.273683829367793,-1
"Quincey, Kyle",0.0690424790172251,-1,0,0,0.160060445768214,-1
"Meszaros, Andrej",0.12256761207988,-1,0,0,0.196013337919992,-1
"Daley, Trevor",0.125347216094786,-1,0,0,0.272464516240597,-1
"Petry, Jeff",0.0910256141546883,-1,0,0,0.214501764559181,-1
"Corvo, Joe",0.118469328243465,-1,0,0,0.278443613806267,-1
"Salo, Sami",0.0644154273571248,-1,0,0,0.235561345379952,-1
"Bergeron, Marc-Andre",0.0582256328669692,-1,0,0,0.369880679425389,-1
"Mitchell, Willie",0.0299685908254691,-1,0,0,0.123987395110733,-1
"Sbisa, Luca",0.0360158289877631,-1,0,0,0.138899916428234,-1
"Hamonic, Travis",0.0617652040337169,-1,0,0,0.250713932759869,-1
"Ference, Andrew",0.0533102099741811,-1,0,0,0.186507932324486,-1
"Coburn, Braydon",0.0399034595932437,-1,0,0,0.13461315595265,-1
"Leopold, Jordan",0.0771649261576164,-1,0,0,0.195533691165711,-1
"Hedman, Victor",0.16229271417867,-1,0,0,0.551419503726442,-1
"Spurgeon, Jared",0.125260500404625,-1,0,0,0.294589550566534,-1
"Vlasic, Marc-Edouard",0.0942427295575942,-1,0,0,0.296362454796253,-1
"Harrison, Jay",0.0637497857884653,-1,0,0,0.138991529745063,-1
"Myers, Tyler",0.139292102892545,-1,0,0,0.252904502955561,-1
"Seidenberg, Dennis",0.0460472635843774,-1,0,0,0.208731069161125,-1
"Schenn, Luke",0.0424093030309543,-1,0,0,0.12379851880084,-1
"Gilbert, Tom",0.0540921597789144,-1,0,0,0.218321646900113,-1
"Beauchemin, Francois",0.0955940976954299,-1,0,0,0.223255654035674,-1
"Robidas, Stephane",0.0564858539054304,-1,0,0,0.153340645453556,-1
"Zidlicky, Marek",0.0889418786235933,-1,0,0,0.291945060301545,-1
"Faulk, Justin",0.195789668388859,-1,0,0,0.316775427957981,-1
"Brewer, Eric",0.0610149067792604,-1,0,0,0.181031176760307,-1
"Klein, Kevin",0.0847983669305576,-1,0,0,0.208756822812546,-1
"Stuart, Brad",0.0416009823605433,-1,0,0,0.145097621663595,-1
"Souray, Sheldon",0.136631341076764,-1,0,0,0.229713984665569,-1
"Franson, Cody",0.0651582133662637,-1,0,0,0.2933100178218,-1
"Potter, Corey",0.0818370634363365,-1,0,0,0.114135284171631,-1
"Wilson, Ryan",0.0027633022675254,-1,0,0,0.245732768066316,-1
"Niskanen, Matt",0.0695522527036665,-1,0,0,0.370397515216196,-1
"Voynov, Slava",0.0887062770871598,-1,0,0,0.35176872158017,-1
"O'Brien, Shane",0.0135682516149529,-1,0,0,0.170639753306808,-1
"Whitney, Ryan",0.0974277034757565,-1,0,0,0.288295130258676,-1
"Gilroy, Matt",0.0447761194029851,-1,0,0,0.253731343283582,-1
"Hejda, Jan",0.0372161059654359,-1,0,0,0.15649035793657,-1
"MacDonald, Andrew",0.037092349157007,-1,0,0,0.223887931209966,-1
"Phillips, Chris",0.0501242170162164,-1,0,0,0.192033163671067,-1
"Gunnarsson, Carl",0.0245699524882631,-1,0,0,0.14098602764596,-1
"Colaiacovo, Carlo",0.0405159621017187,-1,0,0,0.149842346779645,-1
"Orpik, Brooks",0.0228577286988653,-1,0,0,0.185835149975071,-1
"Weber, Yannick",0.055324840290407,-1,0,0,0.125918489050797,-1
"Larsson, Adam",0.0410752104302987,-1,0,0,0.21587850672075,-1
"Stralman, Anton",0.0831966995975049,-1,0,0,0.265416301106073,-1
"Gleason, Tim",0.0102972025559282,-1,0,0,0.148438624404343,-1
"Oduya, Johnny",0.0417117006003151,-1,0,0,0.169371660230308,-1
"Alzner, Karl",0.0406593545944247,-1,0,0,0.165219183562662,-1
"Clitsome, Grant",0.0715048442800153,-1,0,0,0.282813378278226,-1
"Pitkanen, Joni",0.0871186716257138,-1,0,0,0.376135601487714,-1
"Fayne, Mark",0.0344452797142414,-1,0,0,0.0928917129814825,-1
"Cowen, Jared",0.0676379144770651,-1,0,0,0.122422459071226,-1
"Engelland, Deryk",0.0472763801690876,-1,0,0,0.134289258047182,-1
"Josi, Roman",0.166312779872387,-1,0,0,0.483475522692717,-1
"Johnson, Aaron",0.0535714285714286,-1,0,0,0.232142857142857,-1
"Gorges, Josh",0.0211312520933581,-1,0,0,0.119697300653526,-1
"Diaz, Raphael",0.0385122054255083,-1,0,0,0.320337524955281,-1
"Weaver, Mike",0.0188300078350977,-1,0,0,0.211656622424874,-1
"Lee, Brian",0.0181818181818182,-1,0,0,0.272727272727273,-1
"Greene, Andy",0.0576292995229726,-1,0,0,0.177285307067231,-1
"Clark, Brett",0.024390243902439,-1,0,0,0.158536585365854,-1
"Hjalmarsson, Niklas",0.0457611897312847,-1,0,0,0.216419321894978,-1
"Greene, Matt",0.0435576750647141,-1,0,0,0.0911051362768907,-1
"Kubina, Pavel",0.0434782608695652,-1,0,0,0.173913043478261,-1
"Smid, Ladislav",0.0313383023292414,-1,0,0,0.0835639561041347,-1
"Butler, Chris",0.0542490550780684,-1,0,0,0.175519676625849,-1
"Spacek, Jaroslav",0.108695652173913,-1,0,0,0.217391304347826,-1
"Boychuk, Johnny",0.0981373755125952,-1,0,0,0.252088684992024,-1
"Gragnani, Marc-Andre",0.0344827586206897,-1,0,0,0.224137931034483,-1
"Brodie, T.J.",0.0813546875958394,-1,0,0,0.398842504957511,-1
"Montador, Steve",0.0961538461538461,-1,0,0,0.173076923076923,-1
"Stuart, Mark",0.0327803495128851,-1,0,0,0.143535000240659,-1
"Allen, Bryan",0.00198822968029266,-1,0,0,0.148706800646913,-1
"Foster, Kurtis",0.055492660424039,-1,0,0,0.18153193100061,-1
"Brookbank, Sheldon",0.0406803310238645,-1,0,0,0.112057351809084,-1
"Klesla, Rostislav",0.0504049940669659,-1,0,0,0.156503121291854,-1
"Jackman, Barret",0.0264346925421769,-1,0,0,0.121348371518808,-1
"Hamrlik, Roman",0.0294117647058823,-1,0,0,0.161764705882353,-1
"Michalek, Zbynek",0.0388918829962124,-1,0,0,0.104327026120433,-1
"Jovanovski, Ed",0.0454545454545454,-1,0,0,0.151515151515152,-1
"Demers, Jason",0.0950246769041821,-1,0,0,0.259367041933408,-1
"Lydman, Toni",0,-1,0,0,0.172888424498082,-1
"Kindl, Jakub",0.0867389177747395,-1,0,0,0.205481224386266,-1
"Rozsival, Michal",0.0169341800166847,-1,0,0,0.228812170241893,-1
"Gervais, Bruno",0.0589845378577772,-1,0,0,0.136807330469302,-1
"Gill, Hal",0.0131578947368421,-1,0,0,0.157894736842105,-1
"Sekera, Andrej",0.0833536315084354,-1,0,0,0.316718013006941,-1
"Scandella, Marco",0.079328847686722,-1,0,0,0.171458933499013,-1
"Prosser, Nate",0.0421226070536371,-1,0,0,0.117424155541979,-1
"Russell, Kris",0.0520677841679141,-1,0,0,0.237704763566872,-1
"Pronger, Chris",0.0769230769230769,-1,0,0,0.846153846153846,-1
"Hannan, Scott",0.0402307400956377,-1,0,0,0.116986246336489,-1
"Martinez, Alec",0.117471642215708,-1,0,0,0.28148564486853,-1
"Bouillon, Francis",0.03658460793223,-1,0,0,0.109608645953485,-1
"Braun, Justin",0.0391324162909029,-1,0,0,0.190035106071338,-1
"Ellis, Ryan",0.154271940299539,-1,0,0,0.281576368087018,-1
"Larsen, Philip",0.0809164292840927,-1,0,0,0.210602777014619,-1
"Smith, Derek",0.0425531914893617,-1,0,0,0.191489361702128,-1
"Campoli, Chris",0.0465116279069767,-1,0,0,0.209302325581395,-1
"Ericsson, Jonathan",0.0315979654004731,-1,0,0,0.168129454563225,-1
"Morris, Derek",0.0472478686199223,-1,0,0,0.212796898473288,-1
"Polak, Roman",0.0566972263961793,-1,0,0,0.0964268587959687,-1
"Jurcina, Milan",0.0461538461538462,-1,0,0,0.123076923076923,-1
"Schlemko, David",0.0476270647498296,-1,0,0,0.214974102200118,-1
"Volchenkov, Anton",0.00716485682582899,-1,0,0,0.139415726481844,-1
"Grossmann, Nicklas",0.0459701151465999,-1,0,0,0.111245702311448,-1
"Hainsey, Ron",0.0505118955198256,-1,0,0,0.164473761511564,-1
"Sutton, Andy",0.0576923076923077,-1,0,0,0.134615384615385,-1
"Rome, Aaron",0.0319747945034548,-1,0,0,0.169493850845527,-1
"Babchuk, Anton",0.0625,-1,0,0,0.25,-1
"McQuaid, Adam",0.0228202237983653,-1,0,0,0.114584710714983,-1
"Savard, David",0.0840419664304946,-1,0,0,0.259908640773684,-1
"Aucoin, Adrian",0.0107415325285043,-1,0,0,0.110514359303972,-1
"Bickel, Stu",0,-1,0,0,0.176470588235294,-1
"Falk, Justin",0.00200630272661433,-1,0,0,0.155389463635857,-1
"Sulzer, Alexander",0.15400463784888,-1,0,0,0.1149884053778,-1
"Scuderi, Rob",0.0142948585895001,-1,0,0,0.137229266575985,-1
"Salvador, Bryce",0,-1,0,0,0.109756097560976,-1
"Gudbranson, Erik",0.0352371906541849,-1,0,0,0.128966172719381,-1
"Zanon, Greg",0.0184140557631503,-1,0,0,0.120181587359656,-1
"Staios, Steve",0,-1,0,0,0.123076923076923,-1
"Rundblad, David",0.0565332467085948,-1,0,0,0.220370655646571,-1
"Emelin, Alexei",0.0299176685467587,-1,0,0,0.153722287108764,-1
"Blum, Jonathon",0.049998693459458,-1,0,0,0.154167719157659,-1
"Schultz, Nick",0.0176137033002501,-1,0,0,0.132700889615105,-1
"Methot, Marc",0.0354268366944549,-1,0,0,0.170712718772607,-1
"Reese, Dylan",0.0357142857142857,-1,0,0,0.214285714285714,-1
"Taormina, Matt",0.0333333333333333,-1,0,0,0.2,-1
"Smith, Brendan",0.0532375177901188,-1,0,0,0.155623362527854,-1
"Flood, Mark",0.0909090909090909,-1,0,0,0.121212121212121,-1
"Moore, John",0.0957744190059864,-1,0,0,0.169130534368839,-1
"Green, Mike",0.15803315639893,-1,0,0,0.368903192170328,-1
"Sarich, Cory",0.0179528780065173,-1,0,0,0.150121681690631,-1
"Ballard, Keith",0.0389601384589346,-1,0,0,0.148952003450554,-1
"O'Donnell, Sean",0,-1,0,0,0.137254901960784,-1
"Huskins, Kent",0.08,-1,0,0,0.2,-1
"O'Byrne, Ryan",0.0358959850911561,-1,0,0,0.0903719183397252,-1
"Tallinder, Henrik",0.028878837283283,-1,0,0,0.111718793970464,-1
"Cole, Ian",0.0454906052378614,-1,0,0,0.202751236149549,-1
"Hillen, Jack",0.0980997977323759,-1,0,0,0.196199595464752,-1
"Schultz, Jeff",0.0185185185185185,-1,0,0,0.0925925925925926,-1
"Woywitka, Jeff",0.037037037037037,-1,0,0,0.185185185185185,-1
"Lilja, Andreas",0,-1,0,0,0.130434782608696,-1
"Hunwick, Matt",0.0260838550548234,-1,0,0,0.183873837591161,-1
"Kadri, Nazem",0.302448108295798,-1,0,0,0.362510610591862,-1
"Yakupov, Nail",0.177066237136156,-1,0,0,0.24198239391404,-1
"Huberdeau, Jonathan",0.256983956542536,-1,0,0,0.470620465031241,-1
"Conacher, Cory",0.142696575040207,-1,0,0,0.293493496659758,-1
"Gallagher, Brendan",0.257538564222222,-1,0,0,0.316960116951245,-1
"Saad, Brandon",0.306828361102884,-1,0,0,0.336506929628767,-1
"Galchenyuk, Alex",0.280435704478464,-1,0,0,0.362903086041371,-1
"Brunner, Damien",0.216579996083987,-1,0,0,0.26488948780853,-1
"Eakin, Cody",0.204063183967738,-1,0,0,0.256696711657628,-1
"Palmieri, Kyle",0.299520810807249,-1,0,0,0.304371426410072,-1
"Zibanejad, Mika",0.244317733769599,-1,0,0,0.357182695176988,-1
"Zajac, Travis",0.177824184713428,-1,0,0,0.338603398293462,-1
"Moss, David",0.104927401890582,-1,0,0,0.23527737283637,-1
"Tarasenko, Vladimir",0.446274728187192,-1,0,0,0.418433398354541,-1
"Killorn, Alex",0.207067747955816,-1,0,0,0.277865508469645,-1
"Foligno, Marcus",0.138509063056386,-1,0,0,0.168879491207167,-1
"McDonald, Colin",0.129634456088276,-1,0,0,0.172373954015915,-1
"Fehr, Eric",0.190938206846186,-1,0,0,0.166882735990855,-1
"Cervenka, Roman",0.230769230769231,-1,0,0,0.205128205128205,-1
"Paajarvi, Magnus",0.214285714285714,-1,0,0,0.166666666666667,-1
"Dwyer, Patrick",0.131676389095456,-1,0,0,0.181923443447414,-1
"Calvert, Matt",0.17262280594744,-1,0,0,0.151862847612214,-1
"Bourque, Gabriel",0.196713515447166,-1,0,0,0.198983442494074,-1
"Backlund, Mikael",0.247118420674515,-1,0,0,0.332760243644142,-1
"Gomez, Scott",0.101357078910894,-1,0,0,0.42869915028253,-1
"Cizikas, Casey",0.117423962041903,-1,0,0,0.225918358675763,-1
"Carter, Ryan",0.136363636363636,-1,0,0,0.204545454545455,-1
"Bernier, Steve",0.219700234225063,-1,0,0,0.213773917989318,-1
"Roussel, Antoine",0.178419908045858,-1,0,0,0.205458284313344,-1
"Lewis, Trevor",0.1261508186621,-1,0,0,0.153064244304058,-1
"Hecht, Jochen",0.106382978723404,-1,0,0,0.191489361702128,-1
"Gionta, Stephen",0.0833333333333333,-1,0,0,0.208333333333333,-1
"Coyle, Charlie",0.207374408352686,-1,0,0,0.330705069935788,-1
"Clifford, Kyle",0.145833333333333,-1,0,0,0.145833333333333,-1
"Bennett, Beau",0.121801389594984,-1,0,0,0.211323374134762,-1
"Wingels, Tommy",0.15243174206284,-1,0,0,0.222354947212104,-1
"Shore, Drew",0.0697674418604651,-1,0,0,0.232558139534884,-1
"Schwartz, Jaden",0.269284803933026,-1,0,0,0.420285639155739,-1
"Skille, Jack",0.101070027772722,-1,0,0,0.111675185396128,-1
"McLeod, Cody",0.166666666666667,-1,0,0,0.0833333333333333,-1
"Loktionov, Andrei",0.170916656286232,-1,0,0,0.191679123188614,-1
"Aucoin, Keith",0.146341463414634,-1,0,0,0.146341463414634,-1
"Martin, Matt",0.116142551958867,-1,0,0,0.119585958432906,-1
"Klinkhammer, Rob",0.180483330069989,-1,0,0,0.179941518952351,-1
"Kassian, Zack",0.12295186329825,-1,0,0,0.198475663040744,-1
"Latendresse, Guillaume",0.222222222222222,-1,0,0,0.148148148148148,-1
"King, Dwight",0.153786454383926,-1,0,0,0.149750194610973,-1
"Garbutt, Ryan",0.146885141613585,-1,0,0,0.225311388721543,-1
"Etem, Emerson",0.0789473684210526,-1,0,0,0.184210526315789,-1
"Baertschi, Sven",0.234919373102834,-1,0,0,0.236835526911365,-1
"Wolski, Wojtek",0.148148148148148,-1,0,0,0.185185185185185,-1
"Smith, Reilly",0.212737098345947,-1,0,0,0.298045768938559,-1
"Schroeder, Jordan",0.0967741935483871,-1,0,0,0.193548387096774,-1
"Porter, Kevin",0.129032258064516,-1,0,0,0.161290322580645,-1
"Petrell, Lennart",0.0857142857142857,-1,0,0,0.171428571428571,-1
"Panik, Richard",0.223247733747034,-1,0,0,0.19884095038474,-1
"Palushaj, Aaron",0.08,-1,0,0,0.28,-1
"Nash, Riley",0.115365934779933,-1,0,0,0.178477742578078,-1
"Clune, Rich",0.0851063829787234,-1,0,0,0.106382978723404,-1
"Markov, Andrei",0.0989565074576326,-1,0,0,0.473980683007086,-1
"Schultz, Justin",0.113410010529427,-1,0,0,0.403401098606963,-1
"Wiercioch, Patrick",0.0526833515825476,-1,0,0,0.175312508149857,-1
"Hamilton, Dougie",0.143641908475541,-1,0,0,0.398634170761156,-1
"Muzzin, Jake",0.108535949303263,-1,0,0,0.306118687563117,-1
"Barrie, Tyson",0.134674241584337,-1,0,0,0.438707235713731,-1
"Irwin, Matt",0.0783042525931367,-1,0,0,0.184908417284838,-1
"Brodin, Jonas",0.0467963003945372,-1,0,0,0.203072844663051,-1
"Staal, Marc",0.0451921908234579,-1,0,0,0.163175652211659,-1
"Brennan, T.J.",0.103448275862069,-1,0,0,0.241379310344828,-1
"Stoner, Clayton",0.0149119169365876,-1,0,0,0.113413235790834,-1
"Benoit, Andre",0.0538836943579713,-1,0,0,0.191751771350013,-1
"Lovejoy, Ben",0.0342833163160886,-1,0,0,0.127735352566444,-1
"Stone, Michael",0.0884709504440733,-1,0,0,0.245047256041451,-1
"Oleksy, Steve",0.051348515288082,-1,0,0,0.258524321238118,-1
"Postma, Paul",0.0323417075562774,-1,0,0,0.191221328389007,-1
"Gustafsson, Erik (b. 1988)",0.0818453536480535,-1,0,0,0.230959831473557,-1
"Kostka, Michael",0.0897268827713525,-1,0,0,0.242030460987131,-1
"Dillon, Brenden",0.0339384531503308,-1,0,0,0.109242353918152,-1
"Fraser, Mark",0,-1,0,0,0.177777777777778,-1
"Bartley, Victor",0.00639821895266673,-1,0,0,0.219852063369148,-1
"Despres, Simon",0.0457395474816482,-1,0,0,0.234592724857456,-1
"Weber, Mike",0.0168813574941156,-1,0,0,0.110697290483321,-1
"Redden, Wade",0.103448275862069,-1,0,0,0.137931034482759,-1
"Tanev, Christopher",0.0492037790136301,-1,0,0,0.1854458832419,-1
"Kundratek, Tomas",0.04,-1,0,0,0.24,-1
"Prout, Dalton",0.0309776843757981,-1,0,0,0.114472659323494,-1
"Aulie, Keith",0.0444444444444444,-1,0,0,0.111111111111111,-1
"Drewiske, Davis",0.0689655172413793,-1,0,0,0.172413793103448,-1
"Sanguinetti, Bobby",0.0540540540540541,-1,0,0,0.108108108108108,-1
"Fistric, Mark",0,-1,0,0,0.24,-1
"Gryba, Eric",0.0314893184245186,-1,0,0,0.118084308149629,-1
"Murray, Douglas",0.0232558139534884,-1,0,0,0.116279069767442,-1
"Erskine, John",0.1,-1,0,0,0.1,-1
"Benn, Jordie",0.0387405120997373,-1,0,0,0.175665203524917,-1
"Erixon, Tim",0.0343553874723815,-1,0,0,0.130813769177726,-1
"Lashoff, Brian",0.0203716645619025,-1,0,0,0.0898611673062698,-1
"Gudas, Radko",0.0748023212783561,-1,0,0,0.200549669036003,-1
"Harrold, Peter",0.0869565217391304,-1,0,0,0.130434782608696,-1
"Pardy, Adam",0,-1,0,0,0.156852513358631,-1
"Elliott, Stefan",0.0555555555555556,-1,0,0,0.166666666666667,-1
"Redmond, Zach",0.0441973096610397,-1,0,0,0.243898921610075,-1
"Hickey, Thomas",0.0567450689870873,-1,0,0,0.204313401702826,-1
"Bortuzzo, Robert",0.0541196209390735,-1,0,0,0.132603925533259,-1
"Strachan, Tyson",0,-1,0,0,0.105263157894737,-1
"Strait, Brian",0.0310195012186516,-1,0,0,0.114808758278731,-1
"Regehr, Robyn",0.0341183310780811,-1,0,0,0.136258238976393,-1
"Ellerby, Keaton",0,-1,0,0,0.0681818181818182,-1
"Martinek, Radek",0.230769230769231,-1,0,0,0,-1
"MacKinnon, Nathan",0.239964979566259,-1,0,0,0.433332753403708,-1
"Zuccarello, Mats",0.234141046764568,-1,0,0,0.489770738576429,-1
"Palat, Ondrej",0.240383479956919,-1,0,0,0.472980213274878,-1
"Johnson, Tyler",0.281977353154712,-1,0,0,0.403580639496219,-1
"Soderberg, Carl",0.130642758801478,-1,0,0,0.306160338995271,-1
"Nyquist, Gustav",0.249327976094108,-1,0,0,0.384427303505674,-1
"Granlund, Mikael",0.209101250391323,-1,0,0,0.471528653906736,-1
"Tatar, Tomas",0.295814173159162,-1,0,0,0.284422521097899,-1
"Bjugstad, Nick",0.207498440859737,-1,0,0,0.220914621287948,-1
"Kreider, Chris",0.305650872174617,-1,0,0,0.309641635736662,-1
"Upshall, Scottie",0.128549224261391,-1,0,0,0.140402557907837,-1
"Niederreiter, Nino",0.269416826552259,-1,0,0,0.298279179286195,-1
"Chiasson, Alex",0.13700303077535,-1,0,0,0.154869480702328,-1
"Nichushkin, Valeri",0.133743760239684,-1,0,0,0.253164556962025,-1
"Monahan, Sean",0.336399952716523,-1,0,0,0.369579695146898,-1
"Scheifele, Mark",0.336027465083261,-1,0,0,0.498728394152539,-1
"Toffoli, Tyler",0.291130436748571,-1,0,0,0.307839808892822,-1
"Jenner, Boone",0.275610976026468,-1,0,0,0.21617273027284,-1
"Maroon, Patrick",0.197438850497446,-1,0,0,0.225088004132749,-1
"Santorelli, Mike",0.152114111577607,-1,0,0,0.223615926171022,-1
"Colborne, Joe",0.187766499865407,-1,0,0,0.307893602161899,-1
"Smith, Ben",0.186666666666667,-1,0,0,0.16,-1
"Nelson, Brock",0.260589133658207,-1,0,0,0.24353316987003,-1
"Pirri, Brandon",0.245094733650637,-1,0,0,0.145843298074485,-1
"Hertl, Tomas",0.236847842780122,-1,0,0,0.261281476656668,-1
"Nieto, Matt",0.132518568286585,-1,0,0,0.183809389806026,-1
"Sheahan, Riley",0.178919996573483,-1,0,0,0.233026566712485,-1
"Barkov, Aleksander",0.317910127108523,-1,0,0,0.424657477534464,-1
"Richardson, Brad",0.151801579943288,-1,0,0,0.2416766452985,-1
"Girgensons, Zemgus",0.127915285969141,-1,0,0,0.165382437446141,-1
"Raffl, Michael",0.20325476686177,-1,0,0,0.176194018604526,-1
"Fontaine, Justin",0.121463065838368,-1,0,0,0.211244028053346,-1
"Byron, Paul",0.195770241496441,-1,0,0,0.216404849053047,-1
"Lindholm, Elias",0.159150034419962,-1,0,0,0.360642948249087,-1
"Sheppard, James",0.0832426553876406,-1,0,0,0.188033408109899,-1
"Brown, J.T.",0.0894369167337842,-1,0,0,0.196279862923741,-1
"MacKenzie, Derek",0.0891662956826495,-1,0,0,0.118261326195862,-1
"Arcobello, Mark",0.172148184203501,-1,0,0,0.244826002985696,-1
"Strome, Ryan",0.171225784225666,-1,0,0,0.295086667851679,-1
"Kucherov, Nikita",0.412699139650848,-1,0,0,0.477988104538352,-1
"Winchester, Jesse",0.173076923076923,-1,0,0,0.173076923076923,-1
"Hayes, Jimmy",0.208356020681758,-1,0,0,0.198011530526412,-1
"Andersson, Joakim",0.123076923076923,-1,0,0,0.138461538461538,-1
"Gibbons, Brian",0.121951219512195,-1,0,0,0.292682926829268,-1
"Weise, Dale",0.157436883023142,-1,0,0,0.172415732637983,-1
"Krug, Torey",0.105852966233396,-1,0,0,0.457377354965144,-1
"Lindholm, Hampus",0.09856549495999,-1,0,0,0.25486631287931,-1
"Maatta, Olli",0.0574430788813661,-1,0,0,0.210285781588487,-1
"Gelinas, Eric",0.0702412711784357,-1,0,0,0.21494856516819,-1
"Trouba, Jacob",0.114024794871347,-1,0,0,0.297641624571497,-1
"Rielly, Morgan",0.0849712860781725,-1,0,0,0.296577246005993,-1
"Holden, Nick",0.110769399584548,-1,0,0,0.225687792340601,-1
"Jones, Seth",0.105264599065332,-1,0,0,0.357724661364906,-1
"DeKeyser, Danny",0.0610114927481867,-1,0,0,0.191585833091948,-1
"Vatanen, Sami",0.104282976144634,-1,0,0,0.34541349826559,-1
"Murray, Ryan",0.0432413085478336,-1,0,0,0.205132070116186,-1
"Bartkowski, Matt",0.051513644115975,-1,0,0,0.191101122797044,-1
"Donovan, Matt",0.0384615384615385,-1,0,0,0.269230769230769,-1
"Stanton, Ryan",0.0397960038346204,-1,0,0,0.182179643893356,-1
"de Haan, Calvin",0.0421730159121403,-1,0,0,0.216390334521589,-1
"Ranger, Paul",0.113207547169811,-1,0,0,0.150943396226415,-1
"Murphy, Ryan",0.0438909513751093,-1,0,0,0.255564521782598,-1
"Olsen, Dylan",0.0544244088846429,-1,0,0,0.163273226653929,-1
"Orlov, Dmitry",0.0789840912282352,-1,0,0,0.27392162314845,-1
"Merrill, Jon",0.0246581868800421,-1,0,0,0.120770686471248,-1
"Barberio, Mark",0.0587590305227306,-1,0,0,0.18275594828205,-1
"Guenin, Nate",0.0217336610960802,-1,0,0,0.149974841041969,-1
"Ekholm, Mattias",0.0614200718799,-1,0,0,0.232115771900302,-1
"Ceci, Cody",0.0679685100127948,-1,0,0,0.189325230052222,-1
"Bellemore, Brett",0.0370407462602906,-1,0,0,0.135829422824778,-1
"Sustr, Andrej",0.0323001175470279,-1,0,0,0.173055420070427,-1
"Murphy, Connor",0.047167023780975,-1,0,0,0.153904262204014,-1
"Connauton, Kevin",0.0695462454934119,-1,0,0,0.219931233635181,-1
"Belov, Anton",0.0175438596491228,-1,0,0,0.105263157894737,-1
"Carrick, Connor",0.029740416681967,-1,0,0,0.104005414662318,-1
"Stone, Mark",0.312277897710073,-1,0,0,0.474565030242215,-1
"Gaudreau, Johnny",0.303872887701421,-1,0,0,0.57837876072645,-1
"Forsberg, Filip",0.372080252409256,-1,0,0,0.373115266820222,-1
"Hoffman, Mike",0.355847047677199,-1,0,0,0.396695011424373,-1
"Hayes, Kevin",0.206542500220115,-1,0,0,0.359183306122409,-1
"Lehtera, Jori",0.128540615050819,-1,0,0,0.299102522978485,-1
"Lee, Anders",0.323019936214808,-1,0,0,0.23272111954675,-1
"Kuznetsov, Evgeny",0.214149475119486,-1,0,0,0.518377613535193,-1
"Bouma, Lance",0.205128205128205,-1,0,0,0.230769230769231,-1
"Rask, Victor",0.203980761167536,-1,0,0,0.330383106649954,-1
"Drouin, Jonathan",0.209318789763201,-1,0,0,0.425319594901178,-1
"Rakell, Rickard",0.326309862261801,-1,0,0,0.287968430585821,-1
"Pastrnak, David",0.347294229659126,-1,0,0,0.368291110900063,-1
"Eaves, Patrick",0.379069306581472,-1,0,0,0.166234637649762,-1
"Zucker, Jason",0.277767565486565,-1,0,0,0.209062537965104,-1
"Sceviour, Colton",0.129639322421013,-1,0,0,0.19333234778431,-1
"Komarov, Leo",0.198105163643451,-1,0,0,0.246899843420504,-1
"Horvat, Bo",0.217225860728822,-1,0,0,0.311581043378579,-1
"Holland, Peter",0.154493132163104,-1,0,0,0.255887992193635,-1
"Vey, Linden",0.112281716095291,-1,0,0,0.23470262963711,-1
"Karlsson, Melker",0.1793490806955,-1,0,0,0.165686395328402,-1
"Jooris, Josh",0.2,-1,0,0,0.2,-1
"Sekac, Jiri",0.130434782608696,-1,0,0,0.202898550724638,-1
"Miller, J.T.",0.246363788259378,-1,0,0,0.31921127837647,-1
"Lowry, Adam",0.143645641400648,-1,0,0,0.154347256830356,-1
"Burakovsky, Andre",0.192511053436391,-1,0,0,0.302681760805402,-1
"Trocheck, Vincent",0.264206195583116,-1,0,0,0.357048885729764,-1
"Tierney, Chris",0.121973842948951,-1,0,0,0.200238200228986,-1
"Dano, Marko",0.228571428571429,-1,0,0,0.371428571428571,-1
"Rieder, Tobias",0.18597979774636,-1,0,0,0.21710072281655,-1
"Beagle, Jay",0.154087708447786,-1,0,0,0.181762133304649,-1
"Wennberg, Alexander",0.123559659734881,-1,0,0,0.460922977702329,-1
"Lander, Anton",0.157894736842105,-1,0,0,0.368421052631579,-1
"Terry, Chris",0.192982456140351,-1,0,0,0.157894736842105,-1
"Nestrasil, Andrej",0.147922588872824,-1,0,0,0.24618970732382,-1
"Smith-Pelly, Devante",0.294916202125165,-1,0,0,0.241322545146218,-1
"Paquette, Cedric",0.1875,-1,0,0,0.109375,-1
"Pageau, Jean-Gabriel",0.186535128312074,-1,0,0,0.250659162766333,-1
"Glendening, Luke",0.0837827512951475,-1,0,0,0.135260034203707,-1
"Jurco, Tomas",0.0476190476190476,-1,0,0,0.238095238095238,-1
"Jarnkrok, Calle",0.168503784808738,-1,0,0,0.178274824629861,-1
"Spooner, Ryan",0.178888452081561,-1,0,0,0.385511149148821,-1
"Jaskin, Dmitrij",0.240740740740741,-1,0,0,0.0925925925925926,-1
"Granlund, Markus",0.238418624267054,-1,0,0,0.195178807773262,-1
"Wilson, Tom",0.0794960415156191,-1,0,0,0.173203449223488,-1
"Larsson, Johan",0.142834936551449,-1,0,0,0.161183617954198,-1
"Hendricks, Matt",0.112676056338028,-1,0,0,0.112676056338028,-1
"Namestnikov, Vladislav",0.16513711563315,-1,0,0,0.231141013231122,-1
"Klingberg, John",0.153925870085478,-1,0,0,0.508510564256984,-1
"Ekblad, Aaron",0.162107816728263,-1,0,0,0.236154583866457,-1
"McNabb, Brayden",0.0261224538655101,-1,0,0,0.214694104746221,-1
"Ristolainen, Rasmus",0.093093936114438,-1,0,0,0.382119481841103,-1
"Klefbom, Oscar",0.116240206980872,-1,0,0,0.296681497654664,-1
"Severson, Damon",0.0436235545670388,-1,0,0,0.30014289552245,-1
"Dumba, Mathew",0.136220046741161,-1,0,0,0.230586181613403,-1
"Zadorov, Nikita",0.0169940995038219,-1,0,0,0.185854614073067,-1
"Borowiecki, Mark",0.0158730158730159,-1,0,0,0.158730158730159,-1
"Jokipakka, Jyrki",0.0116897056972622,-1,0,0,0.212320066723949,-1
"Folin, Christian",0.0288556797984275,-1,0,0,0.14832225165133,-1
"Goloubef, Cody",0.00760643393714015,-1,0,0,0.177728034747486,-1
"Beaulieu, Nathan",0.0378060974219267,-1,0,0,0.25953677742061,-1
"Oleksiak, Jamie",0.0899433627231538,-1,0,0,0.0982890432699419,-1
"Tennyson, Matt",0.0251764437093658,-1,0,0,0.163545065784572,-1
"Chiarot, Ben",0.0311661758975078,-1,0,0,0.151649521883811,-1
"Nesterov, Nikita",0.0719346162613678,-1,0,0,0.190415182240638,-1
"Miller, Kevan",0.057166691709626,-1,0,0,0.164367017775193,-1
"Pouliot, Derrick",0.0242065652369082,-1,0,0,0.247762719310813,-1
"Holzer, Korbinian",0.0412573756202226,-1,0,0,0.163122613769928,-1
"Panarin, Artemi",0.376755893524186,-1,0,0,0.551153004049346,-1
"Eichel, Jack",0.352246079022035,-1,0,0,0.479102964531016,-1
"Domi, Max",0.182091292260784,-1,0,0,0.461089149413067,-1
"Draisaitl, Leon",0.315590198212149,-1,0,0,0.52560574511794,-1
"McDavid, Connor",0.361486573681696,-1,0,0,0.79320888833084,-1
"Gostisbehere, Shayne",0.165689244225428,-1,0,0,0.434653462202804,-1
"Larkin, Dylan",0.244305019305019,-1,0,0,0.224605855855856,-1
"Duclair, Anthony",0.154357285583339,-1,0,0,0.22494826517815,-1
"Reinhart, Sam",0.247397487903817,-1,0,0,0.32069954221853,-1
"Silfverberg, Jakob",0.271107675399123,-1,0,0,0.287807003845905,-1
"Ehlers, Nikolaj",0.263936628265897,-1,0,0,0.409385212738871,-1
"Fabbri, Robby",0.230237590531708,-1,0,0,0.315177046794694,-1
"Donskoi, Joonas",0.11802726244055,-1,0,0,0.243352482890878,-1
"Pearson, Tanner",0.253298958995162,-1,0,0,0.256709919684603,-1
"Bennett, Sam",0.191566231248771,-1,0,0,0.191566231248771,-1
"Teravainen, Teuvo",0.176437438040814,-1,0,0,0.310072278426709,-1
"Haula, Erik",0.198103648761544,-1,0,0,0.199586334454756,-1
"Parayko, Colton",0.0767525612813939,-1,0,0,0.349249289474325,-1
"Fast, Jesper",0.104496981823862,-1,0,0,0.234402775821242,-1
"Janmark, Mattias",0.205479452054795,-1,0,0,0.191780821917808,-1
"Lindberg, Oscar",0.151955688720395,-1,0,0,0.199870280752634,-1
"Grigorenko, Mikhail",0.111174881445152,-1,0,0,0.220171716117662,-1
"Hutton, Ben",0.0462128929734564,-1,0,0,0.249265684195262,-1
"Nordstrom, Joakim",0.140845070422535,-1,0,0,0.197183098591549,-1
"Martinook, Jordan",0.129394700823272,-1,0,0,0.18324601657935,-1
"Hanifin, Noah",0.049912882542981,-1,0,0,0.274379965659853,-1
"Laughton, Scott",0.0985915492957746,-1,0,0,0.197183098591549,-1
"Karlsson, William",0.0897802564469231,-1,0,0,0.192684748240304,-1
"Lazar, Curtis",0.0789473684210526,-1,0,0,0.184210526315789,-1
"Slavin, Jaccob",0.0485803125175948,-1,0,0,0.324845627110436,-1
"Boucher, Reid",0.205128205128205,-1,0,0,0.282051282051282,-1
"Ferland, Micheal",0.13723027538817,-1,0,0,0.158238125343388,-1
"Marchessault, Jonathan",0.296339196339196,-1,0,0,0.264922064922065,-1
"McCann, Jared",0.126760563380282,-1,0,0,0.126760563380282,-1
"Andrighetto, Sven",0.159090909090909,-1,0,0,0.227272727272727,-1
"Blandisi, Joseph",0.121951219512195,-1,0,0,0.292682926829268,-1
"Di Giuseppe, Phillip",0.170731707317073,-1,0,0,0.24390243902439,-1
"Petrovic, Alex",0.024604249094045,-1,0,0,0.249177417544764,-1
"White, Ryan",0.150684931506849,-1,0,0,0.0684931506849315,-1
"Arvidsson, Viktor",0.283755056076485,-1,0,0,0.276555892627321,-1
"Miller, Colin",0.0869396495860196,-1,0,0,0.197349490675018,-1
"Pesce, Brett",0.0386307379944708,-1,0,0,0.20017510314435,-1
"Dumoulin, Brian",0.00822761537047251,-1,0,0,0.201073587149537,-1
"Schmidt, Nate",0.0405762905762906,-1,0,0,0.216841841841842,-1
"Kuhnhackl, Tom",0.0909005138328447,-1,0,0,0.222217383871519,-1
"Kalinin, Sergey",0.102564102564103,-1,0,0,0.0897435897435898,-1
"Manson, Josh",0.0645669624328161,-1,0,0,0.143181073059122,-1
"Josefson, Jacob",0.0689655172413793,-1,0,0,0.172413793103448,-1
"Athanasiou, Andreas",0.265132591568402,-1,0,0,0.156294838516122,-1
"VandeVelde, Chris",0.0533975808237412,-1,0,0,0.128407792964755,-1
"Bellemare, Pierre-Edouard",0.0945945945945946,-1,0,0,0.0945945945945946,-1
"McCabe, Jake",0.0447636509666585,-1,0,0,0.183900761908281,-1
"Gustafsson, Erik",0,-1,0,0,0.341463414634146,-1
"Van Riemsdyk, Trevor",0.065164046661103,-1,0,0,0.166115713214115,-1
"Copp, Andrew",0.119542127354627,-1,0,0,0.105035810392953,-1
"Wideman, Chris",0.0776466080742396,-1,0,0,0.137319121282937,-1
"Medvedev, Yevgeni",0.0888888888888889,-1,0,0,0.177777777777778,-1
"Davidson, Brandon",0.0784313725490196,-1,0,0,0.137254901960784,-1
"Marchenko, Alexey",0.0128505128505129,-1,0,0,0.173013923013923,-1
"Pysyk, Mark",0.035804604097287,-1,0,0,0.16840954036076,-1
"Nurse, Darnell",0.0838846327976763,-1,0,0,0.121557610688045,-1
"Edmundson, Joel",0.0313699255944551,-1,0,0,0.150797130680323,-1
"Dahlbeck, Klas",0.0385672217067566,-1,0,0,0.08891408019315,-1
"Theodore, Shea",0.097488454841396,-1,0,0,0.224591187826482,-1
"Nemeth, Patrik",0,-1,0,0,0.210526315789474,-1
"Manning, Brandon",0.0341541502255788,-1,0,0,0.125180321608893,-1
"Pateryn, Greg",0.0345988845988846,-1,0,0,0.183596096096096,-1
"Morrow, Joe",0.0294117647058824,-1,0,0,0.176470588235294,-1
"Trotman, Zach",0.0512820512820513,-1,0,0,0.128205128205128,-1
"Biega, Alex",0,-1,0,0,0.137254901960784,-1
"Marincin, Martin",0.0295614295614296,-1,0,0,0.177368577368577,-1
"Reilly, Mike",0.0344827586206897,-1,0,0,0.206896551724138,-1
"Bitetto, Anthony",0.0141355641355641,-1,0,0,0.209696149351322,-1
"Chorney, Taylor",0.0397065897065897,-1,0,0,0.166536666536667,-1
"Corrado, Frank",0.025,-1,0,0,0.125,-1
"Nakladal, Jakub",0.0740740740740741,-1,0,0,0.111111111111111,-1
"Svedberg, Viktor",0.0740740740740741,-1,0,0,0.0740740740740741,-1
"Pulock, Ryan",0.133333333333333,-1,0,0,0.133333333333333,-1
"Matthews, Auston",0.48780487804878,-1,0,0,0.353658536585366,-1
"Laine, Patrik",0.493150684931507,-1,0,0,0.383561643835616,-1
"Marner, Mitchell",0.246753246753247,-1,0,0,0.545454545454545,-1
"Nylander, William",0.271604938271605,-1,0,0,0.481481481481482,-1
"Radulov, Alexander",0.236842105263158,-1,0,0,0.473684210526316,-1
"Sheary, Conor",0.377049180327869,-1,0,0,0.491803278688525,-1
"Aho, Sebastian",0.292682926829268,-1,0,0,0.304878048780488,-1
"Tkachuk, Matthew",0.171052631578947,-1,0,0,0.460526315789474,-1
"Werenski, Zachary",0.141025641025641,-1,0,0,0.461538461538462,-1
"Point, Brayden",0.264705882352941,-1,0,0,0.323529411764706,-1
"Danault, Phillip",0.158536585365854,-1,0,0,0.329268292682927,-1
"Skjei, Brady",0.0625,-1,0,0,0.425,-1
"Rantanen, Mikko",0.266666666666667,-1,0,0,0.24,-1
"Mantha, Anthony",0.283333333333333,-1,0,0,0.316666666666667,-1
"Brown, Connor",0.24390243902439,-1,0,0,0.195121951219512,-1
"Zaitsev, Nikita",0.0487804878048781,-1,0,0,0.390243902439024,-1
"Faksa, Radek",0.15,-1,0,0,0.2625,-1
"Shore, Devin",0.158536585365854,-1,0,0,0.24390243902439,-1
"Dzingel, Ryan",0.17283950617284,-1,0,0,0.222222222222222,-1
"Hartman, Ryan",0.25,-1,0,0,0.157894736842105,-1
"Ryan, Derek",0.164179104477612,-1,0,0,0.26865671641791,-1
"Anderson, Josh",0.217948717948718,-1,0,0,0.153846153846154,-1
"Rust, Bryan",0.263157894736842,-1,0,0,0.228070175438596,-1
"Schmaltz, Nick",0.0983606557377049,-1,0,0,0.360655737704918,-1
"Lehkonen, Artturi",0.246575342465753,-1,0,0,0.136986301369863,-1
"Ritchie, Nick",0.181818181818182,-1,0,0,0.181818181818182,-1
"Hyman, Zach",0.121951219512195,-1,0,0,0.219512195121951,-1
"Vesey, Jimmy",0.2,-1,0,0,0.1375,-1
"Wilson, Scott",0.102564102564103,-1,0,0,0.230769230769231,-1
"Beauvillier, Anthony",0.136363636363636,-1,0,0,0.227272727272727,-1
"Zacha, Pavel",0.114285714285714,-1,0,0,0.228571428571429,-1
"Ritchie, Brett",0.205128205128205,-1,0,0,0.102564102564103,-1
"Dowd, Nic",0.0857142857142857,-1,0,0,0.228571428571429,-1
"Buchnevich, Pavel",0.195121951219512,-1,0,0,0.292682926829268,-1
"Morrissey, Joshua",0.0731707317073171,-1,0,0,0.170731707317073,-1
"Armia, Joel",0.175438596491228,-1,0,0,0.157894736842105,-1
"Vatrano, Frank",0.227272727272727,-1,0,0,0.181818181818182,-1
"Prince, Shane",0.1,-1,0,0,0.26,-1
"Quine, Alan",0.0819672131147541,-1,0,0,0.213114754098361,-1
"Lindell, Esa",0.0821917808219178,-1,0,0,0.164383561643836,-1
"Forbort, Derek",0.024390243902439,-1,0,0,0.195121951219512,-1
"Wood, Miles",0.133333333333333,-1,0,0,0.15,-1
"Shore, Nick",0.0857142857142857,-1,0,0,0.157142857142857,-1
"Watson, Austin",0.0649350649350649,-1,0,0,0.155844155844156,-1
"Matheson, Michael",0.0864197530864198,-1,0,0,0.123456790123457,-1
"Kero, Tanner",0.127659574468085,-1,0,0,0.212765957446809,-1
"McKenzie, Curtis",0.113207547169811,-1,0,0,0.188679245283019,-1
"Fiala, Kevin",0.203703703703704,-1,0,0,0.0925925925925926,-1
"McGinn, Brock",0.12280701754386,-1,0,0,0.157894736842105,-1
"Cousins, Nick",0.1,-1,0,0,0.166666666666667,-1
"Cracknell, Adam",0.144927536231884,-1,0,0,0.0869565217391304,-1
"Carlo, Brandon",0.0731707317073171,-1,0,0,0.121951219512195,-1
"Benning, Matt",0.0483870967741935,-1,0,0,0.193548387096774,-1
"Hinostroza, Vinnie",0.122448979591837,-1,0,0,0.163265306122449,-1
"Schaller, Tim",0.11864406779661,-1,0,0,0.11864406779661,-1
"Jensen, Nick",0.0816326530612245,-1,0,0,0.183673469387755,-1
"Sedlak, Lukas",0.112903225806452,-1,0,0,0.0967741935483871,-1
"Ouellet, Xavier",0.0454545454545455,-1,0,0,0.136363636363636,-1
"Clendening, Adam",0.0645161290322581,-1,0,0,0.290322580645161,-1
"Claesson, Fredrik",0.0909090909090909,-1,0,0,0.242424242424242,-1
"Ruhwedel, Chad",0.0588235294117647,-1,0,0,0.235294117647059,-1
"Pelech, Adam",0.0681818181818182,-1,0,0,0.159090909090909,-1
"Johns, Stephen",0.0655737704918033,-1,0,0,0.0983606557377049,-1
"Mayfield, Scott",0.08,-1,0,0,0.28,-1
"Tryamkin, Nikita",0.0303030303030303,-1,0,0,0.106060606060606,-1
"DeMelo, Dylan",0.04,-1,0,0,0.28,-1
"Kempny, Michal",0.04,-1,0,0,0.12,-1
"Fedun, Taylor",0,-1,0,0,0.259259259259259,-1
"Sproul, Ryan",0.037037037037037,-1,0,0,0.222222222222222,-1
"Santini, Steven",0.0526315789473684,-1,0,0,0.131578947368421,-1
"Gravel, Kevin",0.0204081632653061,-1,0,0,0.122448979591837,-1
"Nutivaara, Markus",0.0303030303030303,-1,0,0,0.0757575757575758,-1
"Forsling, Gustav",0.0526315789473684,-1,0,0,0.0789473684210526,-1
